{
  "uid": "default",
  "enabled": false,
  "schedule": {
    "start_at": "",
    "timeline": "second:2"
  },
  "threads": 1,
  "action": {
    "method": "GET",
    "endpoint": "https://gianangelogeminiani.me",
    "header": {
      "APP_TOKEN": "juygefuigwheirufgiwurg"
    },
    "body": {},
    "script": {
      "on_before": "",
      "on_after": ""
    },
    "notification": {
      "email": {
        "to": "valid@email.com",
        "subject": "ERROR: {{ .err }}",
        "message": "An error occurred checking this endpoint: {{ .err }}"
      },
      "sms": {
        "to": "+39.....",
        "message": "An error occurred checking this endpoint: {{ .err }}"
      }
    }
  },
  "report": {
    "name": "sample",
    "auto-remove": true,
    "schedule": {
      "start_at": "",
      "timeline": "hour:2"
    },
    "email": {
      "to": "valid@email.com",
      "subject": "LoadZilla Report {{ .date }}"
    },
    "sms": {
      "to": "+39.....",
      "message": "LoadZilla Report: {{ .url }}"
    }
  }
}